{
  "fovs": [
    {
      "id": "123455833",
      "channel1Url": "assets/Abell31s.jpg",
      "channel2Url": "assets/Abell78s.jpg",
      "metadata": {}
    },
    {
      "id": "12345232",
      "channel1Url": "assets/Ant_Nebula.jpg",
      "channel2Url": "assets/Eso1532a.jpg",
      "metadata": {}
    },
    {
      "id": "123455546",
      "channel1Url": "assets/Minkowski_92.jpg",
      "channel2Url": "assets/MyCn18-crop.png",
      "metadata": {}
    },
    {
      "id": "123455773",
      "channel1Url": "assets/N1535s.jpg",
      "channel2Url": "assets/N2438s.jpg",
      "metadata": {}
    },
    {
      "id": "122223343",
      "channel1Url": "assets/N4361s.jpg",
      "channel2Url": "assets/NGC6543.jpg",
      "metadata": {}
    }
  ],
  "masks": [
    {
      "fovId": 123455833,
      "url": "url goes here"
    }
  ]
}
